…
    ## [1] 1704

``` r
ncol(gapminder)
```

    ## [1] 6

We can also print the data out, which gives us information on the data type of variables. We can also count rows and columns ourselves with this view, but it's difficult to imagine a scenario where that would be useful.

``` r
print(gapminder)
```

    ## # A tibble: 1,704 x 6
    ##    country     continent  year lifeExp      pop gdpPercap
    ##    <fct>       <fct>     <int>   <dbl>    <int>     <dbl>
    ##  1 Afghanistan Asia       1952    28.8  8425333      779.
    ##  2 Afghanistan Asia       1957    30.3  9240934      821.
    ##  3 Afghanistan Asia       1962    32.0 10267083      853.
    ##  4 Afghanistan Asia       1967    34.0 11537966      836.
    ##  5 Afghanistan Asia       1972    36.1 13079460      740.
    ##  6 Afghanistan Asia       1977    38.4 14880372      786.
    ##  7 Afghanistan Asia       1982    39.9 12881816      978.
    ##  8 Afghanistan Asia       1987    40.8 13867957      852.
    ##  9 Afghanistan Asia       1992    41.7 16317921      649.
    ## 10 Afghanistan Asia       1997    41.8 22227415      635.
    ## # ... with 1,694 more rows
…
``` r
#filter for all Oceania and Africa data before 1977
filter(gapminder, continent %in% c('Oceania','Africa'), year < 1977)
```

    ## # A tibble: 270 x 6
    ##    country continent  year lifeExp      pop gdpPercap
    ##    <fct>   <fct>     <int>   <dbl>    <int>     <dbl>
    ##  1 Algeria Africa     1952    43.1  9279525     2449.
    ##  2 Algeria Africa     1957    45.7 10270856     3014.
    ##  3 Algeria Africa     1962    48.3 11000948     2551.
    ##  4 Algeria Africa     1967    51.4 12760499     3247.
    ##  5 Algeria Africa     1972    54.5 14760787     4183.
    ##  6 Angola  Africa     1952    30.0  4232095     3521.
    ##  7 Angola  Africa     1957    32.0  4561361     3828.
    ##  8 Angola  Africa     1962    34    4826015     4269.
    ##  9 Angola  Africa     1967    36.0  5247469     5523.
    ## 10 Angola  Africa     1972    37.9  5894858     5473.
    ## # ... with 260 more rows

We can also select different columns:

``` r
#select for only gdpPercap and continent
select(gapminder, gdpPercap, continent)
```

    ## # A tibble: 1,704 x 2
    ##    gdpPercap continent
    ##        <dbl> <fct>    
    ##  1      779. Asia     
    ##  2      821. Asia     
    ##  3      853. Asia     
    ##  4      836. Asia     
    ##  5      740. Asia     
    ##  6      786. Asia     
    ##  7      978. Asia     
    ##  8      852. Asia     
    ##  9      649. Asia     
    ## 10      635. Asia     
    ## # ... with 1,694 more rows

``` r
#or we can select only columns that contain the letter E
select(gapminder,contains("e"))
```

    ## # A tibble: 1,704 x 4
    ##    continent  year lifeExp gdpPercap
    ##    <fct>     <int>   <dbl>     <dbl>
    ##  1 Asia       1952    28.8      779.
    ##  2 Asia       1957    30.3      821.
    ##  3 Asia       1962    32.0      853.
    ##  4 Asia       1967    34.0      836.
    ##  5 Asia       1972    36.1      740.
    ##  6 Asia       1977    38.4      786.
    ##  7 Asia       1982    39.9      978.
    ##  8 Asia       1987    40.8      852.
    ##  9 Asia       1992    41.7      649.
    ## 10 Asia       1997    41.8      635.
    ## # ... with 1,694 more rows
…
